&[
Triangle(810, 679, 10),
Triangle(783, 255, 616),
Triangle(545, 626, 626),
Triangle(84, 910, 149),
Triangle(607, 425, 901),
Triangle(556, 616, 883),
Triangle(938, 900, 621),
Triangle(638, 749, 188),
Triangle(981, 415, 634),
Triangle(680, 557, 571),
Triangle(523, 604, 270),
Triangle(910, 954, 484),
Triangle(464, 392, 514),
Triangle(458, 52, 687),
Triangle(696, 438, 832),
Triangle(213, 583, 966),
Triangle(572, 571, 922),
Triangle(451, 42, 686),
Triangle(177, 390, 688),
Triangle(151, 136, 705),
Triangle(92, 413, 191),
Triangle(789, 676, 377),
Triangle(486, 262, 600),
Triangle(450, 708, 472),
Triangle(556, 9, 481),
Triangle(157, 85, 94),
Triangle(574, 93, 549),
Triangle(539, 165, 487),
Triangle(815, 742, 73),
Triangle(353, 773, 428),
Triangle(526, 152, 680),
Triangle(433, 711, 557),
Triangle(168, 632, 306),
Triangle(848, 992, 757),
Triangle(885, 786, 890),
Triangle(469, 475, 146),
Triangle(899, 833, 137),
Triangle(864, 202, 688),
Triangle(101, 902, 620),
Triangle(529, 937, 826),
Triangle(41, 381, 521),
Triangle(562, 883, 804),
Triangle(468, 197, 272),
Triangle(451, 8, 420),
Triangle(561, 193, 630),
Triangle(597, 951, 383),
Triangle(171, 845, 251),
Triangle(541, 810, 157),
Triangle(268, 46, 712),
Triangle(332, 2, 397),
Triangle(100, 47, 436),
Triangle(194, 665, 205),
Triangle(325, 277, 21),
Triangle(170, 652, 205),
Triangle(765, 165, 506),
Triangle(15, 257, 144),
Triangle(762, 124, 401),
Triangle(662, 543, 531),
Triangle(29, 425, 308),
Triangle(667, 785, 299),
Triangle(935, 758, 405),
Triangle(504, 998, 367),
Triangle(771, 947, 630),
Triangle(490, 933, 978),
Triangle(441, 498, 896),
Triangle(862, 896, 607),
Triangle(655, 935, 194),
Triangle(286, 240, 324),
Triangle(368, 723, 311),
Triangle(419, 762, 600),
Triangle(316, 903, 529),
Triangle(197, 215, 215),
Triangle(551, 461, 77),
Triangle(855, 318, 7),
Triangle(894, 690, 86),
Triangle(451, 648, 416),
Triangle(608, 132, 385),
Triangle(420, 761, 112),
Triangle(560, 711, 195),
Triangle(371, 750, 506),
Triangle(188, 307, 584),
Triangle(26, 377, 622),
Triangle(304, 701, 292),
Triangle(286, 630, 642),
Triangle(883, 880, 379),
Triangle(774, 564, 597),
Triangle(300, 692, 701),
Triangle(529, 595, 27),
Triangle(740, 76, 445),
Triangle(567, 648, 422),
Triangle(340, 163, 901),
Triangle(374, 775, 902),
Triangle(308, 827, 882),
Triangle(529, 371, 374),
Triangle(996, 587, 162),
Triangle(534, 360, 516),
Triangle(924, 160, 276),
Triangle(724, 896, 687),
Triangle(929, 971, 578),
Triangle(798, 252, 761),
Triangle(512, 991, 812),
Triangle(465, 758, 49),
Triangle(724, 446, 571),
Triangle(482, 196, 544),
Triangle(553, 247, 86),
Triangle(624, 552, 778),
Triangle(73, 143, 127),
Triangle(556, 471, 749),
Triangle(224, 927, 383),
Triangle(133, 636, 847),
Triangle(174, 985, 569),
Triangle(572, 819, 881),
Triangle(282, 818, 383),
Triangle(535, 429, 780),
Triangle(953, 540, 815),
Triangle(577, 302, 494),
Triangle(530, 654, 370),
Triangle(670, 739, 168),
Triangle(700, 695, 806),
Triangle(196, 48, 928),
Triangle(255, 805, 749),
Triangle(65, 96, 969),
Triangle(292, 860, 929),
Triangle(556, 269, 297),
Triangle(43, 832, 407),
Triangle(542, 723, 438),
Triangle(919, 139, 407),
Triangle(709, 194, 955),
Triangle(847, 237, 933),
Triangle(321, 41, 216),
Triangle(778, 749, 374),
Triangle(782, 745, 529),
Triangle(716, 572, 251),
Triangle(90, 49, 976),
Triangle(639, 557, 740),
Triangle(148, 125, 784),
Triangle(143, 819, 382),
Triangle(71, 729, 563),
Triangle(309, 500, 806),
Triangle(25, 412, 594),
Triangle(296, 600, 237),
Triangle(681, 187, 142),
Triangle(758, 913, 288),
Triangle(163, 972, 266),
Triangle(197, 352, 190),
Triangle(383, 190, 562),
Triangle(206, 214, 393),
Triangle(566, 307, 294),
Triangle(2, 284, 335),
Triangle(564, 472, 394),
Triangle(635, 928, 589),
Triangle(169, 744, 574),
Triangle(710, 386, 589),
Triangle(970, 386, 827),
Triangle(943, 424, 134),
Triangle(846, 269, 712),
Triangle(266, 765, 615),
Triangle(344, 824, 685),
Triangle(250, 222, 554),
Triangle(377, 586, 859),
Triangle(398, 526, 275),
Triangle(317, 996, 937),
Triangle(503, 364, 389),
Triangle(212, 782, 533),
Triangle(584, 539, 589),
Triangle(731, 200, 584),
Triangle(773, 389, 578),
Triangle(43, 482, 104),
Triangle(432, 140, 339),
Triangle(193, 758, 673),
Triangle(612, 882, 582),
Triangle(314, 920, 130),
Triangle(522, 40, 26),
Triangle(695, 939, 149),
Triangle(955, 121, 552),
Triangle(728, 850, 661),
Triangle(524, 766, 433),
Triangle(817, 221, 992),
Triangle(753, 580, 543),
Triangle(72, 392, 873),
Triangle(445, 897, 3),
Triangle(144, 508, 567),
Triangle(354, 990, 566),
Triangle(477, 392, 687),
Triangle(602, 846, 520),
Triangle(321, 577, 677),
Triangle(716, 518, 55),
Triangle(367, 77, 545),
Triangle(361, 473, 504),
Triangle(98, 893, 887),
Triangle(854, 920, 887),
Triangle(860, 174, 30),
Triangle(389, 857, 797),
Triangle(686, 968, 907),
Triangle(613, 275, 595),
Triangle(855, 440, 906),
Triangle(749, 494, 735),
Triangle(527, 895, 550),
Triangle(767, 971, 488),
Triangle(118, 814, 148),
Triangle(854, 193, 480),
Triangle(847, 425, 378),
Triangle(697, 159, 357),
Triangle(282, 476, 48),
Triangle(96, 314, 176),
Triangle(949, 597, 903),
Triangle(956, 478, 885),
Triangle(714, 754, 278),
Triangle(757, 547, 210),
Triangle(53, 223, 170),
Triangle(355, 725, 928),
Triangle(930, 780, 762),
Triangle(924, 581, 266),
Triangle(570, 132, 283),
Triangle(625, 674, 529),
Triangle(159, 719, 325),
Triangle(316, 670, 929),
Triangle(55, 655, 542),
Triangle(344, 19, 791),
Triangle(437, 805, 312),
Triangle(327, 867, 647),
Triangle(521, 405, 496),
Triangle(383, 58, 117),
Triangle(638, 36, 175),
Triangle(924, 59, 112),
Triangle(401, 66, 353),
Triangle(740, 785, 823),
Triangle(713, 725, 622),
Triangle(821, 702, 246),
Triangle(378, 24, 958),
Triangle(690, 718, 924),
Triangle(486, 788, 537),
Triangle(377, 214, 670),
Triangle(514, 720, 427),
Triangle(451, 927, 877),
Triangle(808, 868, 872),
Triangle(554, 94, 2),
Triangle(534, 516, 715),
Triangle(735, 318, 125),
Triangle(880, 496, 755),
Triangle(724, 115, 567),
Triangle(23, 105, 89),
Triangle(725, 55, 561),
Triangle(599, 44, 581),
Triangle(378, 661, 173),
Triangle(628, 640, 632),
Triangle(747, 817, 448),
Triangle(557, 248, 338),
Triangle(743, 833, 776),
Triangle(309, 895, 759),
Triangle(18, 696, 851),
Triangle(328, 775, 356),
Triangle(220, 37, 499),
Triangle(865, 390, 651),
Triangle(736, 397, 205),
Triangle(645, 949, 170),
Triangle(638, 860, 143),
Triangle(23, 262, 98),
Triangle(822, 46, 842),
Triangle(663, 687, 860),
Triangle(941, 700, 745),
Triangle(762, 304, 509),
Triangle(154, 275, 369),
Triangle(728, 155, 324),
Triangle(99, 113, 485),
Triangle(245, 82, 62),
Triangle(294, 76, 484),
Triangle(215, 664, 398),
Triangle(146, 336, 461),
Triangle(102, 591, 503),
Triangle(535, 814, 749),
Triangle(250, 410, 892),
Triangle(672, 467, 212),
Triangle(304, 108, 285),
Triangle(300, 246, 11),
Triangle(4, 304, 284),
Triangle(115, 132, 112),
Triangle(460, 334, 739),
Triangle(453, 281, 792),
Triangle(505, 591, 6),
Triangle(482, 413, 975),
Triangle(26, 763, 980),
Triangle(226, 377, 727),
Triangle(406, 59, 39),
Triangle(570, 325, 691),
Triangle(333, 438, 966),
Triangle(267, 792, 229),
Triangle(130, 384, 854),
Triangle(375, 165, 187),
Triangle(37, 498, 403),
Triangle(357, 509, 242),
Triangle(710, 796, 296),
Triangle(708, 187, 265),
Triangle(46, 762, 279),
Triangle(84, 589, 760),
Triangle(578, 38, 226),
Triangle(624, 558, 570),
Triangle(338, 517, 276),
Triangle(547, 498, 648),
Triangle(626, 265, 677),
Triangle(144, 662, 193),
Triangle(581, 820, 407),
Triangle(477, 567, 232),
Triangle(582, 890, 926),
Triangle(167, 458, 502),
Triangle(635, 841, 607),
Triangle(505, 346, 239),
Triangle(522, 970, 506),
Triangle(608, 830, 686),
Triangle(100, 89, 353),
Triangle(95, 159, 652),
Triangle(24, 163, 786),
Triangle(328, 313, 534),
Triangle(793, 52, 249),
Triangle(750, 274, 683),
Triangle(885, 463, 247),
Triangle(534, 326, 391),
Triangle(938, 726, 199),
Triangle(893, 620, 120),
Triangle(899, 410, 508),
Triangle(226, 896, 459),
Triangle(677, 694, 780),
Triangle(880, 15, 831),
Triangle(909, 683, 903),
Triangle(55, 7, 541),
Triangle(294, 221, 109),
Triangle(286, 216, 507),
Triangle(239, 652, 380),
Triangle(948, 760, 431),
Triangle(772, 258, 275),
Triangle(562, 226, 631),
Triangle(503, 264, 765),
Triangle(690, 42, 369),
Triangle(761, 541, 373),
Triangle(232, 596, 75),
Triangle(925, 60, 402),
Triangle(550, 181, 16),
Triangle(600, 579, 701),
Triangle(92, 419, 696),
Triangle(26, 117, 290),
Triangle(4, 487, 157),
Triangle(21, 474, 308),
Triangle(99, 827, 835),
Triangle(279, 216, 451),
Triangle(267, 739, 749),
Triangle(309, 456, 262),
Triangle(320, 91, 282),
Triangle(52, 431, 304),
Triangle(773, 784, 932),
Triangle(474, 483, 932),
Triangle(703, 975, 257),
Triangle(851, 227, 584),
Triangle(17, 224, 365),
Triangle(845, 96, 536),
Triangle(258, 150, 905),
Triangle(797, 119, 876),
Triangle(862, 196, 220),
Triangle(954, 964, 355),
Triangle(534, 979, 302),
Triangle(905, 509, 628),
Triangle(153, 185, 273),
Triangle(169, 538, 509),
Triangle(43, 477, 356),
Triangle(702, 357, 940),
Triangle(340, 403, 284),
Triangle(638, 86, 744),
Triangle(329, 426, 903),
Triangle(222, 720, 682),
Triangle(127, 624, 253),
Triangle(28, 849, 485),
Triangle(555, 158, 599),
Triangle(553, 690, 443),
Triangle(598, 926, 185),
Triangle(611, 934, 868),
Triangle(986, 8, 983),
Triangle(166, 396, 946),
Triangle(500, 822, 662),
Triangle(507, 715, 828),
Triangle(294, 790, 587),
Triangle(661, 779, 235),
Triangle(549, 594, 657),
Triangle(771, 918, 800),
Triangle(923, 896, 983),
Triangle(866, 203, 437),
Triangle(723, 465, 852),
Triangle(589, 717, 731),
Triangle(332, 331, 710),
Triangle(984, 484, 794),
Triangle(750, 479, 886),
Triangle(857, 5, 286),
Triangle(400, 841, 63),
Triangle(665, 513, 508),
Triangle(841, 739, 513),
Triangle(331, 586, 669),
Triangle(420, 561, 690),
Triangle(346, 104, 22),
Triangle(847, 758, 149),
Triangle(570, 211, 816),
Triangle(524, 868, 962),
Triangle(483, 229, 317),
Triangle(408, 555, 325),
Triangle(682, 650, 285),
Triangle(646, 987, 974),
Triangle(467, 368, 779),
Triangle(442, 640, 968),
Triangle(644, 131, 184),
Triangle(903, 916, 162),
Triangle(565, 890, 91),
Triangle(474, 763, 351),
Triangle(569, 178, 709),
Triangle(520, 618, 666),
Triangle(437, 75, 213),
Triangle(509, 471, 758),
Triangle(298, 486, 904),
Triangle(364, 416, 429),
Triangle(513, 971, 271),
Triangle(169, 863, 202),
Triangle(15, 206, 565),
Triangle(163, 69, 713),
Triangle(167, 186, 542),
Triangle(908, 550, 89),
Triangle(936, 764, 451),
Triangle(118, 467, 464),
Triangle(89, 385, 375),
Triangle(179, 165, 545),
Triangle(143, 514, 187),
Triangle(313, 47, 636),
Triangle(477, 830, 550),
Triangle(769, 808, 577),
Triangle(74, 756, 630),
Triangle(698, 799, 654),
Triangle(721, 387, 36),
Triangle(993, 763, 945),
Triangle(707, 746, 7),
Triangle(955, 113, 948),
Triangle(723, 532, 526),
Triangle(174, 795, 204),
Triangle(671, 968, 575),
Triangle(523, 256, 109),
Triangle(570, 186, 296),
Triangle(350, 351, 215),
Triangle(141, 251, 22),
Triangle(532, 217, 695),
Triangle(460, 37, 719),
Triangle(695, 69, 516),
Triangle(36, 597, 350),
Triangle(670, 552, 556),
Triangle(287, 143, 35),
Triangle(400, 801, 45),
Triangle(133, 921, 71),
Triangle(637, 169, 646),
Triangle(108, 721, 890),
Triangle(655, 681, 311),
Triangle(885, 393, 603),
Triangle(375, 388, 113),
Triangle(976, 522, 534),
Triangle(15, 516, 627),
Triangle(685, 602, 535),
Triangle(669, 390, 781),
Triangle(845, 950, 348),
Triangle(388, 30, 379),
Triangle(825, 955, 46),
Triangle(360, 579, 898),
Triangle(363, 573, 660),
Triangle(33, 30, 864),
Triangle(905, 723, 916),
Triangle(968, 648, 655),
Triangle(178, 181, 363),
Triangle(754, 262, 268),
Triangle(883, 837, 45),
Triangle(216, 687, 222),
Triangle(520, 973, 909),
Triangle(808, 968, 943),
Triangle(335, 3, 202),
Triangle(211, 605, 517),
Triangle(32, 298, 358),
Triangle(184, 488, 173),
Triangle(741, 23, 328),
Triangle(400, 482, 144),
Triangle(626, 491, 451),
Triangle(920, 546, 219),
Triangle(363, 734, 861),
Triangle(739, 417, 685),
Triangle(954, 470, 541),
Triangle(598, 679, 950),
Triangle(550, 372, 450),
Triangle(980, 459, 213),
Triangle(353, 374, 293),
Triangle(720, 220, 256),
Triangle(173, 29, 571),
Triangle(289, 769, 833),
Triangle(372, 793, 345),
Triangle(578, 298, 332),
Triangle(763, 225, 167),
Triangle(258, 519, 307),
Triangle(504, 7, 649),
Triangle(186, 319, 883),
Triangle(358, 322, 918),
Triangle(293, 60, 330),
Triangle(373, 562, 550),
Triangle(310, 532, 573),
Triangle(741, 129, 533),
Triangle(701, 614, 869),
Triangle(54, 736, 587),
Triangle(451, 131, 817),
Triangle(499, 784, 651),
Triangle(931, 681, 193),
Triangle(674, 311, 500),
Triangle(900, 312, 197),
Triangle(553, 94, 331),
Triangle(9, 715, 572),
Triangle(590, 97, 275),
Triangle(579, 713, 299),
Triangle(20, 345, 741),
Triangle(817, 738, 534),
Triangle(819, 963, 497),
Triangle(168, 303, 997),
Triangle(462, 599, 698),
Triangle(400, 772, 485),
Triangle(755, 922, 928),
Triangle(591, 847, 180),
Triangle(500, 135, 977),
Triangle(946, 940, 751),
Triangle(658, 368, 790),
Triangle(720, 714, 141),
Triangle(850, 261, 594),
Triangle(615, 116, 476),
Triangle(660, 156, 488),
Triangle(485, 895, 378),
Triangle(797, 992, 614),
Triangle(847, 652, 838),
Triangle(842, 516, 364),
Triangle(745, 444, 329),
Triangle(175, 362, 84),
Triangle(684, 223, 578),
Triangle(43, 291, 394),
Triangle(702, 222, 862),
Triangle(208, 247, 494),
Triangle(601, 236, 234),
Triangle(780, 53, 675),
Triangle(754, 135, 126),
Triangle(26, 776, 52),
Triangle(735, 716, 136),
Triangle(591, 829, 171),
Triangle(606, 373, 824),
Triangle(51, 926, 766),
Triangle(273, 161, 558),
Triangle(215, 557, 149),
Triangle(393, 703, 653),
Triangle(318, 208, 207),
Triangle(891, 54, 570),
Triangle(790, 153, 689),
Triangle(521, 693, 423),
Triangle(559, 986, 542),
Triangle(58, 611, 404),
Triangle(178, 509, 602),
Triangle(684, 120, 975),
Triangle(791, 407, 811),
Triangle(94, 321, 66),
Triangle(14, 317, 266),
Triangle(108, 14, 271),
Triangle(580, 454, 391),
Triangle(781, 82, 849),
Triangle(419, 406, 775),
Triangle(396, 298, 237),
Triangle(448, 375, 330),
Triangle(747, 301, 322),
Triangle(103, 835, 120),
Triangle(138, 897, 630),
Triangle(127, 102, 546),
Triangle(518, 552, 412),
Triangle(398, 442, 43),
Triangle(586, 972, 380),
Triangle(30, 535, 91),
Triangle(42, 384, 962),
Triangle(61, 414, 942),
Triangle(610, 147, 65),
Triangle(945, 155, 418),
Triangle(667, 54, 375),
Triangle(473, 251, 187),
Triangle(440, 222, 124),
Triangle(886, 158, 163),
Triangle(862, 493, 149),
Triangle(805, 451, 536),
Triangle(59, 108, 458),
Triangle(663, 613, 719),
Triangle(264, 525, 574),
Triangle(755, 176, 168),
Triangle(390, 6, 783),
Triangle(50, 561, 233),
Triangle(401, 568, 582),
Triangle(121, 979, 769),
Triangle(94, 77, 830),
Triangle(195, 938, 201),
Triangle(124, 626, 161),
Triangle(668, 633, 35),
Triangle(662, 29, 164),
Triangle(394, 658, 768),
Triangle(203, 918, 850),
Triangle(466, 425, 399),
Triangle(353, 804, 714),
Triangle(323, 851, 640),
Triangle(152, 939, 642),
Triangle(29, 309, 484),
Triangle(579, 529, 822),
Triangle(608, 262, 731),
Triangle(38, 756, 450),
Triangle(433, 828, 740),
Triangle(431, 895, 693),
Triangle(392, 477, 399),
Triangle(25, 925, 513),
Triangle(368, 969, 491),
Triangle(671, 736, 911),
Triangle(307, 198, 660),
Triangle(662, 859, 311),
Triangle(853, 596, 526),
Triangle(917, 24, 461),
Triangle(677, 574, 960),
Triangle(697, 220, 90),
Triangle(203, 458, 102),
Triangle(499, 284, 29),
Triangle(400, 79, 582),
Triangle(484, 195, 597),
Triangle(575, 276, 912),
Triangle(493, 269, 347),
Triangle(23, 593, 223),
Triangle(476, 802, 358),
Triangle(33, 944, 255),
Triangle(715, 117, 460),
Triangle(739, 885, 586),
Triangle(748, 954, 527),
Triangle(734, 773, 643),
Triangle(542, 202, 117),
Triangle(15, 976, 460),
Triangle(309, 830, 331),
Triangle(319, 208, 557),
Triangle(458, 822, 461),
Triangle(545, 784, 690),
Triangle(878, 372, 858),
Triangle(57, 295, 470),
Triangle(268, 537, 822),
Triangle(271, 301, 699),
Triangle(806, 909, 878),
Triangle(744, 182, 571),
Triangle(106, 895, 468),
Triangle(121, 778, 28),
Triangle(641, 202, 593),
Triangle(710, 724, 592),
Triangle(125, 784, 603),
Triangle(654, 771, 83),
Triangle(721, 87, 543),
Triangle(585, 724, 89),
Triangle(381, 739, 524),
Triangle(623, 28, 494),
Triangle(869, 729, 292),
Triangle(228, 736, 298),
Triangle(803, 10, 95),
Triangle(700, 224, 786),
Triangle(738, 512, 9),
Triangle(708, 407, 775),
Triangle(558, 645, 863),
Triangle(45, 209, 466),
Triangle(540, 809, 587),
Triangle(372, 512, 717),
Triangle(416, 203, 974),
Triangle(272, 496, 928),
Triangle(816, 141, 903),
Triangle(675, 894, 84),
Triangle(567, 900, 957),
Triangle(827, 122, 189),
Triangle(882, 860, 56),
Triangle(98, 792, 196),
Triangle(861, 461, 209),
Triangle(685, 339, 87),
Triangle(585, 464, 235),
Triangle(640, 156, 703),
Triangle(817, 596, 321),
Triangle(893, 462, 996),
Triangle(679, 536, 208),
Triangle(199, 455, 365),
Triangle(873, 260, 492),
Triangle(528, 179, 563),
Triangle(689, 563, 849),
Triangle(887, 417, 507),
Triangle(64, 270, 198),
Triangle(595, 214, 166),
Triangle(566, 232, 242),
Triangle(921, 102, 212),
Triangle(187, 202, 335),
Triangle(992, 169, 475),
Triangle(736, 754, 200),
Triangle(655, 374, 127),
Triangle(84, 492, 193),
Triangle(21, 709, 972),
Triangle(199, 208, 236),
Triangle(216, 683, 926),
Triangle(479, 669, 604),
Triangle(437, 872, 293),
Triangle(789, 256, 515),
Triangle(341, 948, 637),
Triangle(142, 933, 536),
Triangle(207, 82, 218),
Triangle(702, 249, 779),
Triangle(253, 369, 874),
Triangle(508, 255, 254),
Triangle(91, 536, 541),
Triangle(212, 813, 28),
Triangle(144, 406, 563),
Triangle(180, 513, 277),
Triangle(421, 842, 639),
Triangle(570, 520, 522),
Triangle(224, 830, 592),
Triangle(153, 582, 606),
Triangle(81, 415, 239),
Triangle(160, 553, 735),
Triangle(525, 348, 778),
Triangle(454, 352, 626),
Triangle(609, 460, 169),
Triangle(559, 57, 334),
Triangle(784, 428, 242),
Triangle(706, 867, 289),
Triangle(637, 914, 281),
Triangle(620, 407, 83),
Triangle(152, 446, 90),
Triangle(260, 331, 799),
Triangle(301, 677, 725),
Triangle(708, 254, 328),
Triangle(418, 147, 798),
Triangle(732, 344, 963),
Triangle(627, 626, 302),
Triangle(670, 241, 76),
Triangle(220, 383, 376),
Triangle(733, 124, 50),
Triangle(795, 673, 466),
Triangle(136, 637, 423),
Triangle(823, 258, 700),
Triangle(204, 936, 878),
Triangle(730, 976, 981),
Triangle(272, 310, 894),
Triangle(333, 201, 863),
Triangle(90, 122, 621),
Triangle(90, 811, 209),
Triangle(275, 904, 283),
Triangle(193, 125, 189),
Triangle(127, 961, 283),
Triangle(347, 529, 829),
Triangle(352, 738, 734),
Triangle(878, 726, 411),
Triangle(942, 54, 34),
Triangle(429, 750, 426),
Triangle(367, 938, 424),
Triangle(501, 447, 757),
Triangle(566, 773, 648),
Triangle(382, 140, 899),
Triangle(462, 353, 90),
Triangle(230, 493, 945),
Triangle(425, 290, 415),
Triangle(894, 360, 21),
Triangle(897, 529, 431),
Triangle(914, 124, 338),
Triangle(78, 766, 876),
Triangle(858, 664, 764),
Triangle(598, 664, 317),
Triangle(630, 548, 772),
Triangle(30, 483, 604),
Triangle(642, 331, 545),
Triangle(518, 702, 474),
Triangle(546, 750, 887),
Triangle(252, 663, 547),
Triangle(813, 917, 671),
Triangle(852, 367, 894),
Triangle(97, 192, 265),
Triangle(661, 587, 858),
Triangle(726, 674, 748),
Triangle(578, 178, 878),
Triangle(327, 535, 608),
Triangle(426, 419, 871),
Triangle(559, 837, 229),
Triangle(851, 721, 708),
Triangle(860, 978, 770),
Triangle(308, 604, 626),
Triangle(198, 168, 408),
Triangle(138, 628, 799),
Triangle(669, 525, 918),
Triangle(804, 762, 652),
Triangle(389, 429, 554),
Triangle(618, 566, 360),
Triangle(814, 648, 887),
Triangle(677, 697, 659),
Triangle(600, 660, 162),
Triangle(256, 749, 195),
Triangle(840, 734, 216),
Triangle(445, 192, 960),
Triangle(341, 226, 975),
Triangle(699, 140, 114),
Triangle(763, 833, 533),
Triangle(234, 835, 38),
Triangle(798, 10, 569),
Triangle(190, 745, 418),
Triangle(183, 563, 486),
Triangle(295, 224, 197),
Triangle(437, 724, 885),
Triangle(197, 706, 328),
Triangle(268, 709, 702),
Triangle(351, 679, 694),
Triangle(642, 555, 769),
Triangle(333, 521, 883),
Triangle(182, 532, 772),
Triangle(517, 543, 711),
Triangle(657, 154, 169),
Triangle(134, 888, 300),
Triangle(217, 121, 209),
Triangle(346, 796, 100),
Triangle(755, 681, 817),
Triangle(277, 733, 980),
Triangle(677, 162, 481),
Triangle(527, 191, 433),
Triangle(293, 999, 653),
Triangle(429, 850, 503),
Triangle(562, 205, 402),
Triangle(217, 323, 414),
Triangle(565, 402, 43),
Triangle(730, 223, 537),
Triangle(4, 701, 567),
Triangle(737, 570, 523),
Triangle(644, 510, 459),
Triangle(390, 252, 367),
Triangle(344, 715, 179),
Triangle(62, 236, 586),
Triangle(527, 310, 137),
Triangle(526, 96, 548),
Triangle(585, 357, 407),
Triangle(768, 532, 384),
Triangle(591, 421, 43),
Triangle(928, 129, 533),
Triangle(228, 469, 848),
Triangle(886, 349, 596),
Triangle(392, 231, 867),
Triangle(507, 664, 870),
Triangle(546, 881, 121),
Triangle(28, 306, 275),
Triangle(688, 284, 261),
Triangle(683, 495, 31),
Triangle(733, 191, 899),
Triangle(83, 785, 730),
Triangle(738, 668, 220),
Triangle(795, 69, 237),
Triangle(148, 175, 238),
Triangle(872, 139, 100),
Triangle(673, 671, 744),
Triangle(222, 421, 346),
Triangle(824, 971, 589),
Triangle(283, 135, 474),
Triangle(626, 48, 487),
Triangle(426, 172, 548),
Triangle(796, 463, 616),
Triangle(547, 349, 568),
Triangle(717, 798, 428),
Triangle(248, 977, 192),
Triangle(337, 683, 128),
Triangle(480, 487, 231),
Triangle(817, 559, 882),
Triangle(413, 935, 879),
Triangle(694, 724, 447),
Triangle(221, 458, 449),
Triangle(649, 523, 725),
Triangle(689, 131, 311),
Triangle(726, 707, 273),
Triangle(712, 689, 127),
Triangle(65, 338, 183),
Triangle(612, 523, 679),
Triangle(631, 834, 297),
Triangle(701, 320, 433),
Triangle(265, 518, 602),
Triangle(691, 519, 160),
Triangle(463, 4, 575),
Triangle(777, 590, 394),
Triangle(790, 975, 201),
Triangle(22, 449, 242),
Triangle(578, 308, 911),
Triangle(371, 157, 191),
Triangle(489, 263, 789),
Triangle(962, 696, 390),
Triangle(494, 760, 494),
Triangle(760, 656, 350),
Triangle(57, 322, 551),
Triangle(639, 105, 616),
Triangle(676, 402, 236),
Triangle(269, 464, 893),
Triangle(265, 573, 312),
Triangle(472, 822, 682),
Triangle(410, 385, 584),
Triangle(882, 56, 493),
Triangle(596, 330, 827),
Triangle(184, 494, 873),
Triangle(61, 580, 793),
Triangle(157, 260, 128),
Triangle(440, 239, 390),
Triangle(701, 174, 230),
Triangle(946, 357, 394),
Triangle(273, 423, 258),
Triangle(529, 438, 733),
Triangle(552, 75, 892),
Triangle(946, 755, 996),
Triangle(64, 836, 112),
Triangle(971, 192, 928),
Triangle(188, 378, 692),
Triangle(179, 299, 676),
Triangle(91, 177, 202),
Triangle(748, 644, 634),
Triangle(551, 355, 345),
Triangle(265, 504, 410),
Triangle(644, 58, 450),
Triangle(103, 716, 556),
Triangle(691, 679, 128),
Triangle(166, 255, 174),
Triangle(415, 682, 368),
Triangle(474, 862, 434),
Triangle(348, 462, 133),
Triangle(704, 626, 374),
Triangle(979, 835, 426),
Triangle(239, 897, 288),
Triangle(381, 953, 234),
Triangle(181, 65, 504),
Triangle(61, 803, 297),
Triangle(761, 22, 946),
Triangle(771, 822, 908),
Triangle(900, 914, 563),
Triangle(656, 948, 114),
Triangle(349, 202, 594),
Triangle(322, 294, 811),
Triangle(535, 484, 837),
Triangle(532, 438, 869),
Triangle(700, 94, 814),
Triangle(691, 557, 159),
Triangle(201, 512, 738),
Triangle(598, 652, 742),
Triangle(269, 642, 772),
Triangle(698, 23, 49),
Triangle(376, 375, 689),
Triangle(375, 476, 819),
Triangle(426, 421, 559),
Triangle(683, 775, 420),
Triangle(876, 374, 995),
Triangle(281, 556, 587),
Triangle(990, 137, 273),
Triangle(782, 928, 299),
Triangle(895, 829, 65),
Triangle(228, 687, 764),
Triangle(62, 496, 905),
Triangle(210, 277, 352),
Triangle(732, 461, 535),
Triangle(418, 364, 561),
Triangle(958, 373, 189),
Triangle(640, 617, 27),
Triangle(185, 680, 698),
Triangle(697, 507, 688),
Triangle(324, 836, 143),
Triangle(434, 868, 658),
Triangle(342, 516, 628),
Triangle(351, 760, 280),
Triangle(796, 663, 876),
Triangle(977, 133, 813),
Triangle(169, 326, 101),
Triangle(139, 575, 796),
Triangle(236, 597, 851),
Triangle(191, 704, 375),
Triangle(568, 733, 436),
Triangle(615, 68, 728),
Triangle(478, 768, 617),
Triangle(531, 594, 596),
Triangle(898, 898, 64),
Triangle(596, 181, 707),
Triangle(371, 381, 259),
Triangle(609, 406, 528),
Triangle(810, 271, 308),
Triangle(211, 975, 596),
Triangle(963, 896, 551),
Triangle(94, 362, 418),
Triangle(812, 351, 848),
Triangle(732, 495, 708),
Triangle(866, 246, 209),
Triangle(973, 682, 792),
Triangle(898, 535, 672),
Triangle(667, 237, 783),
Triangle(325, 642, 229),
Triangle(419, 654, 754),
Triangle(328, 374, 7),
Triangle(359, 468, 93),
Triangle(91, 453, 93),
Triangle(923, 741, 53),
Triangle(721, 938, 589),
Triangle(235, 716, 605),
Triangle(466, 387, 199),
Triangle(554, 430, 681),
Triangle(166, 181, 864),
Triangle(699, 998, 953),
Triangle(999, 962, 718),
Triangle(330, 124, 822),
Triangle(443, 536, 930),
Triangle(293, 631, 674),
Triangle(197, 574, 315),
Triangle(407, 183, 293),
Triangle(432, 417, 537),
Triangle(31, 571, 657),
Triangle(901, 555, 463),
Triangle(686, 456, 465),
Triangle(217, 259, 3),
Triangle(742, 535, 427),
Triangle(881, 347, 555),
Triangle(769, 659, 299),
Triangle(134, 577, 20),
Triangle(252, 566, 877),
Triangle(181, 10, 885),
Triangle(191, 829, 994),
Triangle(744, 649, 867),
Triangle(910, 354, 781),
Triangle(68, 767, 930),
Triangle(88, 716, 850),
Triangle(22, 290, 121),
Triangle(226, 212, 666),
Triangle(266, 327, 812),
Triangle(356, 112, 148),
Triangle(252, 397, 741),
Triangle(325, 674, 834),
Triangle(389, 442, 946),
Triangle(898, 83, 618),
Triangle(51, 807, 862),
Triangle(844, 772, 461),
Triangle(831, 546, 467),
Triangle(644, 476, 539),
Triangle(758, 758, 722),
Triangle(346, 512, 463),
Triangle(157, 427, 697),
Triangle(439, 672, 243),
Triangle(192, 869, 150),
Triangle(890, 977, 753),
Triangle(962, 767, 607),
Triangle(818, 926, 500),
Triangle(960, 927, 219),
Triangle(377, 9, 389),
Triangle(661, 191, 869),
Triangle(695, 149, 368),
Triangle(358, 342, 778),
Triangle(474, 396, 202),
Triangle(546, 585, 853),
Triangle(74, 281, 734),
Triangle(830, 295, 611),
Triangle(19, 813, 388),
Triangle(847, 963, 378),
Triangle(78, 140, 278),
Triangle(531, 580, 246),
Triangle(550, 546, 415),
Triangle(739, 419, 197),
Triangle(803, 266, 247),
Triangle(285, 672, 123),
Triangle(669, 51, 665),
Triangle(525, 662, 5),
Triangle(998, 619, 667),
Triangle(737, 368, 910),
Triangle(533, 550, 245),
Triangle(899, 667, 932),
Triangle(80, 302, 566),
Triangle(508, 1, 576),
Triangle(454, 303, 15),
Triangle(752, 463, 159),
Triangle(119, 380, 906),
Triangle(702, 279, 942),
Triangle(234, 198, 326),
Triangle(262, 207, 305),
Triangle(214, 388, 64),
Triangle(975, 779, 523),
Triangle(975, 243, 519),
Triangle(694, 895, 79),
Triangle(750, 477, 112),
Triangle(746, 470, 108),
Triangle(201, 299, 119),
Triangle(748, 890, 652),
Triangle(808, 897, 387),
Triangle(908, 617, 466),
Triangle(739, 750, 302),
Triangle(887, 765, 558),
Triangle(464, 97, 662),
Triangle(11, 745, 109),
Triangle(454, 537, 27),
Triangle(446, 363, 118),
Triangle(265, 33, 670),
Triangle(862, 497, 147),
Triangle(681, 488, 582),
Triangle(370, 131, 389),
Triangle(645, 652, 560),
Triangle(496, 548, 779),
Triangle(910, 434, 642),
Triangle(793, 105, 303),
Triangle(232, 468, 916),
Triangle(932, 5, 657),
Triangle(782, 634, 626),
Triangle(429, 642, 326),
Triangle(946, 618, 408),
Triangle(760, 711, 553),
Triangle(561, 391, 385),
Triangle(614, 834, 961),
Triangle(585, 853, 375),
Triangle(188, 562, 635),
Triangle(775, 758, 496),
Triangle(300, 128, 476),
Triangle(747, 817, 333),
Triangle(288, 608, 259),
Triangle(410, 883, 700),
Triangle(142, 691, 562),
Triangle(222, 270, 870),
Triangle(654, 341, 896),
Triangle(548, 133, 474),
Triangle(49, 712, 796),
Triangle(486, 607, 561),
Triangle(483, 920, 970),
Triangle(510, 553, 658),
Triangle(876, 682, 369),
Triangle(654, 744, 670),
Triangle(508, 888, 671),
Triangle(648, 111, 694),
Triangle(213, 954, 529),
Triangle(548, 879, 258),
Triangle(342, 15, 155),
Triangle(265, 880, 313),
Triangle(613, 36, 583),
Triangle(285, 774, 605),
Triangle(696, 776, 742),
Triangle(772, 230, 561),
Triangle(239, 304, 710),
Triangle(602, 387, 940),
Triangle(871, 107, 512),
Triangle(182, 321, 376),
Triangle(927, 392, 527),
Triangle(677, 124, 195),
Triangle(312, 270, 938),
Triangle(755, 308, 986),
Triangle(400, 779, 601),
Triangle(876, 843, 690),
Triangle(964, 719, 119),
Triangle(925, 665, 237),
Triangle(730, 719, 310),
Triangle(352, 86, 123),
Triangle(583, 801, 629),
Triangle(697, 340, 198),
Triangle(150, 635, 446),
Triangle(905, 183, 133),
Triangle(648, 654, 298),
Triangle(445, 743, 383),
Triangle(483, 628, 344),
Triangle(460, 822, 64),
Triangle(264, 872, 384),
Triangle(496, 291, 691),
Triangle(130, 742, 608),
Triangle(491, 590, 986),
Triangle(737, 317, 602),
Triangle(442, 179, 684),
Triangle(617, 256, 642),
Triangle(711, 688, 915),
Triangle(679, 804, 29),
Triangle(127, 869, 890),
Triangle(621, 677, 347),
Triangle(306, 486, 533),
Triangle(645, 198, 481),
Triangle(706, 855, 997),
Triangle(686, 743, 117),
Triangle(152, 947, 939),
Triangle(271, 251, 352),
Triangle(324, 621, 83),
Triangle(562, 745, 349),
Triangle(901, 797, 273),
Triangle(7, 84, 696),
Triangle(895, 857, 751),
Triangle(692, 663, 805),
Triangle(692, 489, 122),
Triangle(876, 848, 930),
Triangle(667, 851, 155),
Triangle(226, 218, 502),
Triangle(447, 876, 635),
Triangle(395, 40, 430),
Triangle(652, 999, 312),
Triangle(362, 992, 135),
Triangle(714, 360, 668),
Triangle(603, 393, 858),
Triangle(176, 36, 470),
Triangle(956, 803, 884),
Triangle(678, 829, 391),
Triangle(340, 128, 810),
Triangle(643, 777, 545),
Triangle(71, 314, 335),
Triangle(705, 667, 881),
Triangle(119, 708, 664),
Triangle(480, 524, 560),
Triangle(432, 183, 165),
Triangle(983, 946, 881),
Triangle(788, 472, 442),
Triangle(386, 767, 510),
Triangle(864, 823, 566),
Triangle(764, 684, 955),
Triangle(155, 309, 725),
Triangle(459, 300, 826),
Triangle(627, 85, 796),
Triangle(497, 376, 448),
Triangle(827, 969, 784),
Triangle(408, 875, 120),
Triangle(764, 883, 698),
Triangle(81, 590, 675),
Triangle(128, 549, 653),
Triangle(127, 606, 712),
Triangle(668, 989, 706),
Triangle(776, 440, 615),
Triangle(121, 840, 169),
Triangle(641, 648, 803),
Triangle(224, 671, 825),
Triangle(733, 419, 107),
Triangle(86, 208, 359),
Triangle(383, 809, 426),
Triangle(322, 741, 122),
Triangle(772, 75, 577),
Triangle(844, 100, 782),
Triangle(128, 139, 344),
Triangle(702, 420, 230),
Triangle(311, 488, 724),
Triangle(633, 209, 661),
Triangle(33, 564, 249),
Triangle(459, 120, 886),
Triangle(493, 473, 761),
Triangle(252, 719, 939),
Triangle(506, 628, 748),
Triangle(673, 843, 501),
Triangle(124, 54, 798),
Triangle(421, 761, 726),
Triangle(521, 732, 70),
Triangle(395, 438, 839),
Triangle(600, 434, 851),
Triangle(464, 374, 29),
Triangle(598, 900, 349),
Triangle(817, 637, 266),
Triangle(558, 625, 311),
Triangle(503, 806, 254),
Triangle(527, 415, 447),
Triangle(131, 972, 675),
Triangle(816, 36, 481),
Triangle(870, 880, 637),
Triangle(215, 908, 266),
Triangle(973, 18, 622),
Triangle(973, 940, 514),
Triangle(463, 923, 875),
Triangle(472, 982, 282),
Triangle(868, 808, 269),
Triangle(544, 272, 456),
Triangle(961, 836, 90),
Triangle(130, 888, 215),
Triangle(974, 276, 275),
Triangle(309, 233, 253),
Triangle(973, 46, 438),
Triangle(842, 277, 438),
Triangle(366, 80, 179),
Triangle(419, 901, 846),
Triangle(82, 907, 966),
Triangle(596, 354, 513),
Triangle(381, 362, 490),
Triangle(846, 11, 884),
Triangle(22, 718, 970),
Triangle(396, 766, 862),
Triangle(397, 62, 598),
Triangle(222, 158, 646),
Triangle(814, 712, 225),
Triangle(732, 629, 623),
Triangle(809, 626, 692),
Triangle(979, 632, 811),
Triangle(503, 139, 372),
Triangle(462, 517, 811),
Triangle(256, 899, 609),
Triangle(216, 570, 483),
Triangle(902, 733, 385),
Triangle(89, 928, 4),
Triangle(887, 695, 386),
Triangle(35, 568, 155),
Triangle(781, 58, 203),
Triangle(775, 604, 291),
Triangle(367, 692, 689),
Triangle(101, 158, 677),
Triangle(336, 580, 368),
Triangle(981, 337, 174),
Triangle(900, 880, 593),
Triangle(275, 613, 463),
Triangle(311, 907, 363),
Triangle(368, 83, 832),
Triangle(64, 974, 980),
Triangle(157, 562, 421),
Triangle(12, 820, 590),
Triangle(160, 464, 322),
Triangle(245, 444, 382),
Triangle(9, 312, 134),
Triangle(257, 306, 288),
Triangle(237, 449, 297),
Triangle(142, 600, 661),
Triangle(320, 363, 821),
Triangle(721, 84, 89),
Triangle(589, 509, 116),
Triangle(413, 594, 181),
Triangle(890, 477, 712),
Triangle(742, 65, 245),
Triangle(229, 432, 917),
Triangle(536, 189, 821),
Triangle(732, 401, 407),
Triangle(515, 210, 512),
Triangle(733, 778, 2),
Triangle(852, 451, 210),
Triangle(130, 360, 208),
Triangle(230, 408, 748),
Triangle(667, 499, 94),
Triangle(467, 112, 789),
Triangle(649, 764, 715),
Triangle(253, 908, 53),
Triangle(775, 878, 673),
Triangle(265, 5, 24),
Triangle(717, 434, 72),
Triangle(687, 428, 72),
Triangle(268, 436, 903),
Triangle(678, 450, 742),
Triangle(636, 40, 792),
Triangle(555, 104, 649),
Triangle(538, 608, 340),
Triangle(370, 525, 847),
Triangle(555, 830, 585),
Triangle(763, 92, 375),
Triangle(754, 898, 314),
Triangle(153, 560, 139),
Triangle(224, 663, 666),
Triangle(138, 344, 595),
Triangle(278, 448, 532),
Triangle(413, 492, 470),
Triangle(432, 98, 335),
Triangle(148, 795, 903),
Triangle(729, 903, 101),
Triangle(818, 186, 960),
Triangle(853, 631, 290),
Triangle(761, 170, 666),
Triangle(171, 582, 732),
Triangle(189, 731, 633),
Triangle(779, 20, 287),
Triangle(883, 726, 449),
Triangle(701, 139, 747),
Triangle(571, 29, 567),
Triangle(918, 166, 232),
Triangle(98, 356, 853),
Triangle(815, 512, 449),
Triangle(911, 504, 671),
Triangle(728, 414, 257),
Triangle(515, 517, 657),
Triangle(590, 854, 517),
Triangle(388, 526, 831),
Triangle(646, 217, 989),
Triangle(845, 355, 289),
Triangle(573, 306, 156),
Triangle(563, 11, 456),
Triangle(107, 320, 601),
Triangle(37, 287, 714),
Triangle(167, 290, 958),
Triangle(198, 37, 287),
Triangle(896, 491, 695),
Triangle(712, 282, 239),
Triangle(223, 252, 604),
Triangle(524, 955, 584),
Triangle(883, 890, 665),
Triangle(818, 817, 242),
Triangle(518, 236, 632),
Triangle(410, 222, 191),
Triangle(310, 135, 666),
Triangle(983, 634, 348),
Triangle(671, 476, 306),
Triangle(986, 665, 111),
Triangle(109, 220, 399),
Triangle(717, 738, 695),
Triangle(764, 825, 534),
Triangle(616, 315, 977),
Triangle(628, 142, 873),
Triangle(19, 287, 155),
Triangle(967, 255, 868),
Triangle(191, 80, 844),
Triangle(986, 220, 988),
Triangle(419, 521, 444),
Triangle(454, 916, 489),
Triangle(71, 859, 500),
Triangle(897, 459, 731),
Triangle(823, 791, 216),
Triangle(351, 677, 556),
Triangle(840, 208, 612),
Triangle(983, 156, 22),
Triangle(988, 318, 633),
Triangle(472, 628, 495),
Triangle(341, 608, 343),
Triangle(771, 779, 528),
Triangle(818, 149, 422),
Triangle(598, 52, 436),
Triangle(678, 130, 285),
Triangle(455, 502, 177),
Triangle(461, 245, 81),
Triangle(466, 382, 258),
Triangle(181, 661, 64),
Triangle(808, 499, 22),
Triangle(892, 243, 76),
Triangle(341, 643, 531),
Triangle(717, 328, 856),
Triangle(811, 779, 683),
Triangle(666, 220, 797),
Triangle(613, 453, 417),
Triangle(978, 632, 462),
Triangle(457, 620, 387),
Triangle(558, 681, 351),
Triangle(105, 337, 432),
Triangle(880, 55, 818),
Triangle(438, 63, 136),
Triangle(709, 100, 700),
Triangle(229, 792, 280),
Triangle(427, 985, 53),
Triangle(442, 385, 325),
Triangle(918, 328, 642),
Triangle(754, 291, 642),
Triangle(970, 74, 973),
Triangle(296, 55, 952),
Triangle(577, 458, 924),
Triangle(645, 507, 523),
Triangle(589, 149, 6),
Triangle(491, 933, 297),
Triangle(871, 822, 303),
Triangle(436, 938, 577),
Triangle(98, 762, 322),
Triangle(368, 875, 708),
Triangle(607, 636, 385),
Triangle(488, 362, 722),
Triangle(642, 379, 510),
Triangle(271, 30, 954),
Triangle(338, 296, 210),
Triangle(125, 279, 887),
Triangle(614, 178, 645),
Triangle(268, 237, 471),
Triangle(578, 60, 720),
Triangle(776, 691, 995),
Triangle(814, 565, 784),
Triangle(58, 358, 474),
Triangle(968, 573, 398),
Triangle(358, 613, 323),
Triangle(851, 694, 665),
Triangle(109, 4, 181),
Triangle(366, 741, 777),
Triangle(447, 747, 870),
Triangle(738, 460, 241),
Triangle(905, 694, 448),
Triangle(440, 901, 565),
Triangle(293, 278, 940),
Triangle(822, 276, 877),
Triangle(746, 2, 338),
Triangle(227, 915, 30),
Triangle(604, 733, 486),
Triangle(501, 359, 493),
Triangle(536, 79, 751),
Triangle(621, 623, 135),
Triangle(524, 547, 812),
Triangle(917, 11, 982),
Triangle(505, 55, 826),
Triangle(580, 55, 287),
Triangle(228, 805, 345),
Triangle(586, 101, 202),
Triangle(624, 829, 465),
Triangle(262, 645, 636),
Triangle(942, 775, 496),
Triangle(724, 942, 398),
Triangle(803, 499, 16),
Triangle(326, 565, 969),
Triangle(751, 977, 964),
Triangle(320, 725, 153),
Triangle(258, 772, 689),
Triangle(107, 421, 839),
Triangle(402, 399, 578),
Triangle(116, 927, 560),
Triangle(508, 685, 100),
Triangle(970, 581, 680),
Triangle(119, 98, 451),
Triangle(904, 580, 314),
Triangle(207, 186, 373),
Triangle(791, 286, 21),
Triangle(917, 199, 388),
Triangle(210, 549, 203),
Triangle(212, 270, 266),
Triangle(2, 429, 355),
Triangle(297, 647, 659),
Triangle(233, 537, 895),
Triangle(142, 284, 332),
Triangle(219, 237, 361),
Triangle(246, 247, 401),
Triangle(288, 81, 328),
Triangle(360, 346, 279),
Triangle(21, 262, 298),
Triangle(343, 211, 50),
Triangle(637, 778, 813),
Triangle(820, 240, 32),
Triangle(660, 781, 805),
Triangle(638, 470, 759),
Triangle(779, 198, 372),
Triangle(158, 392, 433),
Triangle(5, 274, 133),
Triangle(189, 346, 169),
Triangle(194, 74, 37),
Triangle(13, 767, 447),
Triangle(167, 546, 364),
Triangle(176, 618, 336),
Triangle(554, 638, 712),
Triangle(615, 663, 776),
Triangle(824, 62, 142),
Triangle(582, 320, 499),
Triangle(302, 278, 545),
Triangle(751, 296, 71),
Triangle(366, 35, 493),
Triangle(196, 657, 381),
Triangle(364, 685, 134),
Triangle(888, 756, 128),
Triangle(17, 799, 479),
Triangle(872, 685, 363),
Triangle(879, 279, 556),
Triangle(665, 164, 40),
Triangle(264, 418, 539),
Triangle(627, 575, 589),
Triangle(978, 792, 584),
Triangle(662, 693, 9),
Triangle(988, 838, 552),
Triangle(870, 299, 11),
Triangle(141, 674, 546),
Triangle(460, 912, 693),
Triangle(216, 795, 292),
Triangle(531, 699, 441),
Triangle(207, 795, 373),
Triangle(719, 461, 831),
Triangle(571, 491, 664),
Triangle(142, 282, 59),
Triangle(48, 89, 556),
Triangle(147, 278, 506),
Triangle(334, 990, 607),
Triangle(483, 42, 370),
Triangle(766, 978, 303),
Triangle(343, 336, 215),
Triangle(283, 745, 857),
Triangle(306, 587, 642),
Triangle(566, 764, 323),
Triangle(372, 267, 609),
Triangle(878, 505, 315),
Triangle(282, 877, 342),
Triangle(283, 369, 682),
Triangle(4, 823, 926),
Triangle(339, 831, 891),
Triangle(521, 33, 942),
Triangle(704, 816, 318),
Triangle(416, 621, 503),
Triangle(163, 684, 625),
Triangle(514, 141, 646),
Triangle(362, 81, 368),
Triangle(134, 819, 425),
Triangle(324, 768, 190),
Triangle(985, 309, 356),
Triangle(41, 491, 802),
Triangle(997, 793, 905),
Triangle(976, 684, 837),
Triangle(368, 954, 863),
Triangle(878, 407, 43),
Triangle(216, 662, 557),
Triangle(82, 425, 547),
Triangle(286, 486, 43),
Triangle(841, 595, 727),
Triangle(809, 169, 417),
Triangle(233, 566, 654),
Triangle(547, 419, 783),
Triangle(91, 422, 981),
Triangle(628, 1, 945),
Triangle(83, 747, 306),
Triangle(399, 806, 592),
Triangle(346, 708, 392),
Triangle(813, 865, 624),
Triangle(516, 636, 29),
Triangle(592, 753, 610),
Triangle(440, 460, 145),
Triangle(457, 457, 114),
Triangle(40, 19, 165),
Triangle(494, 659, 248),
Triangle(647, 950, 224),
Triangle(810, 965, 241),
Triangle(913, 630, 245),
Triangle(919, 652, 409),
Triangle(38, 151, 355),
Triangle(430, 239, 96),
Triangle(372, 597, 360),
Triangle(711, 494, 370),
Triangle(176, 710, 108),
Triangle(130, 230, 503),
Triangle(188, 509, 421),
Triangle(850, 394, 702),
Triangle(68, 744, 665),
Triangle(919, 923, 873),
]
